tests/test_gate_decomposition_cz.cc_backend.vcd
$date today $end
$timescale 1 ns $end
$scope module kernel $end
$var string 20 0 kernel $end
$upscope $end
$scope module qubits $end
$var string 20 1 q0 $end
$var string 20 2 q1 $end
$var string 20 3 q2 $end
$var string 20 4 q3 $end
$var string 20 5 q4 $end
$var string 20 6 q5 $end
$var string 20 7 q6 $end
$var string 20 8 q7 $end
$var string 20 9 q8 $end
$var string 20 10 q9 $end
$var string 20 11 q10 $end
$var string 20 12 q11 $end
$var string 20 13 q12 $end
$var string 20 14 q13 $end
$var string 20 15 q14 $end
$var string 20 16 q15 $end
$var string 20 17 q16 $end
$upscope $end
$scope module sd.signal $end
$var string 20 18 ro_0-0 $end
$var string 20 19 ro_0-1 $end
$var string 20 20 ro_0-2 $end
$var string 20 21 ro_0-3 $end
$var string 20 22 ro_0-4 $end
$var string 20 23 ro_0-5 $end
$var string 20 24 ro_0-6 $end
$var string 20 25 ro_0-7 $end
$var string 20 26 ro_0-8 $end
$var string 20 27 ro_1-0 $end
$var string 20 28 ro_1-1 $end
$var string 20 29 ro_1-2 $end
$var string 20 30 ro_1-3 $end
$var string 20 31 ro_1-4 $end
$var string 20 32 ro_1-5 $end
$var string 20 33 ro_1-6 $end
$var string 20 34 ro_1-7 $end
$var string 20 35 ro_1-8 $end
$var string 20 36 ro_2-0 $end
$var string 20 37 ro_2-1 $end
$var string 20 38 ro_2-2 $end
$var string 20 39 ro_2-3 $end
$var string 20 40 ro_2-4 $end
$var string 20 41 ro_2-5 $end
$var string 20 42 ro_2-6 $end
$var string 20 43 ro_2-7 $end
$var string 20 44 ro_2-8 $end
$var string 20 45 mw_0-0 $end
$var string 20 46 mw_0-1 $end
$var string 20 47 mw_0-2 $end
$var string 20 48 mw_0-3 $end
$var string 20 49 mw_1-0 $end
$var string 20 50 mw_1-1 $end
$var string 20 51 mw_1-2 $end
$var string 20 52 mw_1-3 $end
$var string 20 53 mw_2-0 $end
$var string 20 54 mw_2-1 $end
$var string 20 55 mw_2-2 $end
$var string 20 56 mw_2-3 $end
$var string 20 57 mw_3-0 $end
$var string 20 58 mw_3-1 $end
$var string 20 59 mw_3-2 $end
$var string 20 60 mw_3-3 $end
$var string 20 61 mw_4-0 $end
$var string 20 62 mw_4-1 $end
$var string 20 63 mw_4-2 $end
$var string 20 64 mw_4-3 $end
$var string 20 65 flux_0-0 $end
$var string 20 66 flux_0-1 $end
$var string 20 67 flux_0-2 $end
$var string 20 68 flux_0-3 $end
$var string 20 69 flux_0-4 $end
$var string 20 70 flux_0-5 $end
$var string 20 71 flux_0-6 $end
$var string 20 72 flux_0-7 $end
$var string 20 73 flux_1-0 $end
$var string 20 74 flux_1-1 $end
$var string 20 75 flux_1-2 $end
$var string 20 76 flux_1-3 $end
$var string 20 77 flux_1-4 $end
$var string 20 78 flux_1-5 $end
$var string 20 79 flux_1-6 $end
$var string 20 80 flux_1-7 $end
$var string 20 81 flux_2-0 $end
$var string 20 82 flux_2-1 $end
$var string 20 83 flux_2-2 $end
$var string 20 84 flux_2-3 $end
$var string 20 85 flux_2-4 $end
$var string 20 86 flux_2-5 $end
$var string 20 87 flux_2-6 $end
$var string 20 88 flux_2-7 $end
$upscope $end
$scope module codewords $end
$var string 20 89 ro_0 $end
$var string 20 90 ro_1 $end
$var string 20 91 ro_2 $end
$var string 20 92 mw_0 $end
$var string 20 93 mw_1 $end
$var string 20 94 mw_2 $end
$var string 20 95 mw_3 $end
$var string 20 96 mw_4 $end
$var string 20 97 flux_0 $end
$var string 20 98 flux_1 $end
$var string 20 99 flux_2 $end
$upscope $end
$enddefinitions $end
#0
skernel_0 0
s_cz_sw_ne_park 9
s_cz_sw_ne_park 11
s_cz_sw_ne_park 12
s2147516419={type:cz,which:SW} 65
s2147516480={type:idle_z,which:NE} 67
s2147518976={type:park} 68
s 89
s 90
s 91
s 92
s 93
s 94
s 95
s 96
s0x80008a43 97
s 98
s 99
#40
s_cz_sw_ne_park 9
s_cz_sw_ne_park 11
s_cz_sw_ne_park 12
s2147516419={type:cz,which:SW} 65
s2147516480={type:idle_z,which:NE} 67
s2147518976={type:park} 68
s 89
s 90
s 91
s 92
s 93
s 94
s 95
s 96
s0x80008a43 97
s 98
s 99
#80
s_cz_se_nw_park 9
s_cz_se_nw_park 11
s_cz_se_nw_park 12
s2147516418={type:cz,which:SE} 65
s2147516736={type:park} 67
s2147518464={type:idle_z,which:NW} 68
s 89
s 90
s 91
s 92
s 93
s 94
s 95
s 96
s0x80008942 97
s 98
s 99
#120
s 9
s_cz_sw_ne_park 10
s 11
s_cz_sw_ne_park 12
s_cz_sw_ne_park 13
s 65
s2147516440={type:cz,which:SW} 66
s 67
s2147516928={type:idle_z,which:NE} 68
s2147844096={type:park} 69
s 89
s 90
s 91
s 92
s 93
s 94
s 95
s 96
s0x80058218 97
s 98
s 99
#160
s 10
s_cz_sw_ne_park 12
s 13
s_cz_sw_ne_park 15
s_cz_sw_ne_park 16
s 66
s2147517952={type:cz,which:SW} 68
s 69
s2151710720={type:idle_z,which:NE} 71
s2315288576={type:park} 72
s 89
s 90
s 91
s 92
s 93
s 94
s 95
s 96
s0x8a408600 97
s 98
s 99
#200
s_cz_sw_ne_park 12
s_cz_sw_ne_park 15
s_cz_sw_ne_park 16
s2147517952={type:cz,which:SW} 68
s2151710720={type:idle_z,which:NE} 71
s2315288576={type:park} 72
s 89
s 90
s 91
s 92
s 93
s 94
s 95
s 96
s0x8a408600 97
s 98
s 99
#240
s_cz_sw_ne_park 10
s_cz_sw_ne_park 12
s_cz_sw_ne_park 13
s 15
s 16
s2147516440={type:cz,which:SW} 66
s2147516928={type:idle_z,which:NE} 68
s2147844096={type:park} 69
s 71
s 72
s 89
s 90
s 91
s 92
s 93
s 94
s 95
s 96
s0x80058218 97
s 98
s 99
#280
s_cz_sw_ne_park 10
s_cz_sw_ne_park 12
s_cz_sw_ne_park 13
s2147516440={type:cz,which:SW} 66
s2147516928={type:idle_z,which:NE} 68
s2147844096={type:park} 69
s 89
s 90
s 91
s 92
s 93
s 94
s 95
s 96
s0x80058218 97
s 98
s 99
#320
s_cz_se_nw_park 10
s_cz_se_nw_park 12
s_cz_se_nw_park 13
s2147516432={type:cz,which:SE} 66
s2147518976={type:park} 68
s2147778560={type:idle_z,which:NW} 69
s 89
s 90
s 91
s 92
s 93
s 94
s 95
s 96
s0x80048a10 97
s 98
s 99
#360
s_cz_se_nw_park 10
s_cz_se_nw_park 12
s_cz_se_nw_park 13
s2147516432={type:cz,which:SE} 66
s2147518976={type:park} 68
s2147778560={type:idle_z,which:NW} 69
s 89
s 90
s 91
s 92
s 93
s 94
s 95
s 96
s0x80048a10 97
s 98
s 99
#400
s 10
s_cz_se_nw 11
s 12
s_cz_sw_ne 13
s_cz_se_nw 15
s_cz_sw_ne 16
s 66
s2147516544={type:cz,which:SE} 67
s 68
s2147713024={type:cz,which:SW} 69
s2164293632={type:idle_z,which:NW} 71
s2181070848={type:idle_z,which:NE} 72
s 89
s 90
s 91
s 92
s 93
s 94
s 95
s 96
s0x83038080 97
s 98
s 99
#440
s_cz_se_nw 11
s_cz_sw_ne 13
s_cz_se_nw 15
s_cz_sw_ne 16
s2147516544={type:cz,which:SE} 67
s2147713024={type:cz,which:SW} 69
s2164293632={type:idle_z,which:NW} 71
s2181070848={type:idle_z,which:NE} 72
s 89
s 90
s 91
s 92
s 93
s 94
s 95
s 96
s0x83038080 97
s 98
s 99
#480
s 0
s 11
s 13
s 15
s 16
s 67
s 69
s 71
s 72
s 97
